[
  {
    "id": "basics",
    "category": {
      "en": "Basics"
    },
    "guides": [
      {
        "en": {
          "title": "Cryptocurrency Explained",
          "image": "guides/fundamentals/images/01-main-l.png",
          "file": "guides/fundamentals/en/1-cryptocurrency-basics.md",
          "updated_at": "2020-06-01"
        }
      },
      {
        "en": {
          "title": "Crypto Wallets",
          "image": "guides/fundamentals/images/02-main-l.png",
          "file": "guides/fundamentals/en/2-wallets-basics.md",
          "updated_at": "2020-06-01"
        }
      },
      {
        "en": {
          "title": "What Are Private Keys",
          "image": "guides/fundamentals/images/03-main-l.png",
          "file": "guides/fundamentals/en/3-private-keys-basics.md",
          "updated_at": "2020-06-01"
        }
      },
      {
        "en": {
          "title": "Keeping Crypto Safe",
          "image": "guides/fundamentals/images/04-main-l.png",
          "file": "guides/fundamentals/en/4-safe-storage-basics.md",
          "updated_at": "2020-06-01"
        }
      },
      {
        "en": {
          "title": "Seven Coin Intro",
          "image": "guides/fundamentals/images/05-main-l.png",
          "file": "guides/fundamentals/en/5-seven-coin-basics.md",
          "updated_at": "2020-06-01"
        }
      },
      {
        "en": {
          "title": "Buying Cryptocurrency",
          "image": "guides/fundamentals/images/06-main-l.png",
          "file": "guides/fundamentals/en/6-buying-cryptocurrency-basics.md",
          "updated_at": "2020-06-01"
        }
      },
      {
        "en": {
          "title": "Spending Cryptocurrency",
          "image": "guides/fundamentals/images/07-main-l.png",
          "file": "guides/fundamentals/en/7-spending-cryptocurrency.md",
          "updated_at": "2020-06-01"
        }
      },
      {
        "en": {
          "title": "Cryptocurrency Transactions",
          "image": "guides/fundamentals/images/08-main-l.png",
          "file": "guides/fundamentals/en/8-transactions-basics.md",
          "updated_at": "2020-06-01"
        }
      }
    ]
  },
  {
    "id": "currencies",
    "category": {
      "en": "Currencies"
    },
    "guides": [
      {
        "en": {
          "title": "Bitcoin in Simple Terms",
          "image": "guides/token_guides/images/btc-Main-l.png",
          "file": "guides/token_guides/en/bitcoin.md",
          "updated_at": "2020-06-01"
        }
      },
      {
        "en": {
          "title": "Ethereum in Simple Terms",
          "image": "guides/token_guides/images/eth-Main-l.png",
          "file": "guides/token_guides/en/ethereum.md",
          "updated_at": "2020-06-01"
        }
      },
      {
        "en": {
          "title": "Bitcoin Cash in Simple Terms",
          "image": "guides/token_guides/images/bch-Main-l.png",
          "file": "guides/token_guides/en/bitcoin-cash.md",
          "updated_at": "2020-06-01"
        }
      },
      {
        "en": {
          "title": "Zcash in Simple Terms",
          "image": "guides/token_guides/images/Zcash-Main-l.png",
          "file": "guides/token_guides/en/zcash.md",
          "updated_at": "2020-11-15"
        }
      }
    ]
  },
  {
    "id": "defi",
    "category": {
      "en": "DeFi"
    },
    "guides": [
      {
        "en": {
          "title": "DeFi Explained",
          "image": "guides/defi/images/defi-Main-l.png",
          "file": "guides/defi/en/1-defi-explained.md",
          "updated_at": "2020-09-01"
        }
      },
      {
        "en": {
          "title": "How to DeFi",
          "image": "guides/defi/images/defi2-Main-l.png",
          "file": "guides/defi/en/2-howto-defi.md",
          "updated_at": "2020-09-01"
        }
      },
      {
        "en": {
          "title": "Decentralized Exchanges",
          "image": "guides/defi/images/defi3-exchanges-l.png",
          "file": "guides/defi/en/3-decentralized-exchanges.md",
          "updated_at": "2020-09-01"
        }
      },
      {
        "en": {
          "title": "Lending Protocols",
          "image": "guides/defi/images/defi4-Main-l.png",
          "file": "guides/defi/en/4-lending-protocols.md",
          "updated_at": "2020-09-01"
        }
      },
      {
        "en": {
          "title": "Stablecoins",
          "image": "guides/defi/images/defi5-Main-l.png",
          "file": "guides/defi/en/5-stablecoins.md",
          "updated_at": "2020-09-01"
        }
      },
      {
        "en": {
          "title": "DeFi Transactions",
          "image": "guides/defi/images/defi6-Main-l.png",
          "file": "guides/defi/en/6-defi-transactions.md",
          "updated_at": "2020-09-01"
        }
      }
    ]
  },
  {
    "id": "exchanges",
    "category": {
      "en": "Exchanges"
    },
    "guides": [
      {
        "en": {
          "title": "Uniswap in Simple Terms",
          "image": "guides/token_guides/images/uniswap-Main-l.png",
          "file": "guides/token_guides/en/uniswap.md",
          "updated_at": "2020-10-01"
        }
      },
      {
        "en": {
          "title": "Curve in Simple Terms",
          "image": "guides/token_guides/images/curve-Main-l.png",
          "file": "guides/token_guides/en/curve-finance.md",
          "updated_at": "2020-09-01"
        }
      },
      {
        "en": {
          "title": "Balancer in Simple Terms",
          "image": "guides/token_guides/images/bal-Main-l.png",
          "file": "guides/token_guides/en/balancer-dex.md",
          "updated_at": "2020-09-01"
        }
      },
      {
        "en": {
          "title": "Synthetix in Simple Terms",
          "image": "guides/token_guides/images/snx-Main-l.png",
          "file": "guides/token_guides/en/synthetix.md",
          "updated_at": "2020-09-01"
        }
      }
    ]
  },
  {
    "id": "stablecoins",
    "category": {
      "en": "Stablecoins"
    },
    "guides": [
      {
        "en": {
          "title": "Tether in Simple Terms",
          "image": "guides/token_guides/images/usdt-Main-l.png",
          "file": "guides/token_guides/en/tether.md",
          "updated_at": "2020-06-01"
        }
      },
      {
        "en": {
          "title": "DAI in Simple Terms",
          "image": "guides/token_guides/images/mkr-Main-l.png",
          "file": "guides/token_guides/en/makerdao.md",
          "updated_at": "2020-06-01"
        }
      }
    ]
  },
  {
    "id": "lending",
    "category": {
      "en": "Lending"
    },
    "guides": [
      {
        "en": {
          "title": "Aave in Simple Terms",
          "image": "guides/token_guides/images/aave-Main-l.png",
          "file": "guides/token_guides/en/aave.md",
          "updated_at": "2020-09-01"
        }
      },
      {
        "en": {
          "title": "Compound in Simple Terms",
          "image": "guides/token_guides/images/comp-Main-l.png",
          "file": "guides/token_guides/en/compound.md",
          "updated_at": "2020-09-01"
        }
      },
      {
        "en": {
          "title": "MakerDAO in Simple Terms",
          "image": "guides/token_guides/images/mkr-Main-l.png",
          "file": "guides/token_guides/en/makerdao.md",
          "updated_at": "2020-06-01"
        }
      }
    ]
  }
]